Data exploration with tidyverse
…
tibble

tibble is more advanced data.frame

There is a super advanced way of using tibble, see another set of slides.

class(rawEyData)

## [1] "tbl_df"     "tbl"        "data.frame"

rawEyData

## # A tibble: 1,010 x 41
##      id LOCATION  TIME GENDER `Population (%  EDU_TERTIARY_PC CPI_AGRWTH
##   <int> <chr>    <int> <chr>             <dbl>            <dbl>      <dbl>
## 1     1 AUS       1993 MEN                49.8             23.5       1.75
## 2     2 AUS       1993 WOMEN              50.2             21.4       1.75
## 3     3 AUS       1994 MEN                49.8             24.4       1.97
## 4     4 AUS       1994 WOMEN              50.2             21.7       1.97
## 5     5 AUS       1995 MEN                49.8             25.8       4.63
## # ... with 1,005 more rows, and 34 more variables: GDP_USD_CAP <dbl>,
## #   GOV_SPEND_EDU <dbl>, `%_Sanitation_Access` <int>, `Access to Clean
## #   Fuels and Technologies for cooking (% of total population)
## #   [2.1_ACCESS.CFT.TOT]` <chr>, `Access to electricity (% of rural
## #   population with access) [1.2_ACCESS.ELECTRICITY.RURAL]` <int>, `Access
## #   to electricity (% of total population)
## #   [1.1_ACCESS.ELECTRICITY.TOT]` <int>, `Access to electricity (% of
## #   urban population with access) [1.3_ACCESS.ELECTRICITY.URBAN]` <int>,
## #   `Energy intensity level of primary energy (MJ/2011 USD PPP)
…
Janitor

Consistent naming of columns

This is perhaps the most useful function in janitor.

eyData = janitor::clean_names(rawEyData)
eyData

## # A tibble: 1,010 x 41
##      id location  time gender population_perc edu_tertiary_pc cpi_agrwth
##   <int> <chr>    <int> <chr>             <dbl>            <dbl>      <dbl>
## 1     1 AUS       1993 MEN                49.8             23.5       1.75
## 2     2 AUS       1993 WOMEN              50.2             21.4       1.75
## 3     3 AUS       1994 MEN                49.8             24.4       1.97
## 4     4 AUS       1994 WOMEN              50.2             21.7       1.97
## 5     5 AUS       1995 MEN                49.8             25.8       4.63
## # ... with 1,005 more rows, and 34 more variables: gdp_usd_cap <dbl>,
## #   gov_spend_edu <dbl>, percent_sanitation_access <int>,
## #   access_to_clean_fuels_and_technologies_for_cooking_percent_of_total_population_2_1_access_cft_tot <chr>,
## #   access_to_electricity_percent_of_rural_population_with_access_1_2_access_electricity_rural <int>,
## #   access_to_electricity_percent_of_total_population_1_1_access_electricity_tot <int>,
## #   access_to_electricity_percent_of_urban_population_with_access_1_3_access_electricity_urban <int>,
## #   energy_intensity_level_of_primary_energy_mj_2011_usd_ppp_6_1_primary_energy_intensity <dbl>,
## #   renewable_electricity_output_g_wh_4_1_2_ren_electricity_output <int>,
## #   renewable_electricity_share_of_total_electricity_output_percent_4_1_share_re_in_electricity <dbl>,
…
dplyr

Have you ever thought about [,]?

base R use [,] to subset data.

But if you really think about it, why are we using the one symbol for two operations (row, column)?

eyData[,c("id", "location")]

## # A tibble: 1,010 x 2
##      id location
##   <int> <chr>   
## 1     1 AUS     
## 2     2 AUS     
## 3     3 AUS     
## 4     4 AUS     
## 5     5 AUS     
## # ... with 1,005 more rows

eyData[eyData$location == "AUS",]

## # A tibble: 46 x 41
##      id location  time gender population_perc edu_tertiary_pc cpi_agrwth
##   <int> <chr>    <int> <chr>             <dbl>            <dbl>      <dbl>
## 1     1 AUS       1993 MEN                49.8             23.5       1.75
## 2     2 AUS       1993 WOMEN              50.2             21.4       1.75
## 3     3 AUS       1994 MEN                49.8             24.4       1.97
## 4     4 AUS       1994 WOMEN              50.2             21.7       1.97
## 5     5 AUS       1995 MEN                49.8             25.8       4.63
## # ... with 41 more rows, and 34 more variables: gdp_usd_cap <dbl>,
## #   gov_spend_edu <dbl>, percent_sanitation_access <int>,
## #   access_to_clean_fuels_and_technologies_for_cooking_percent_of_total_population_2_1_access_cft_tot <chr>,
## #   access_to_electricity_percent_of_rural_population_with_access_1_2_access_electricity_rural <int>,
## #   access_to_electricity_percent_of_total_population_1_1_access_electricity_tot <int>,
## #   access_to_electricity_percent_of_urban_population_with_access_1_3_access_electricity_urban <int>,
## #   energy_intensity_level_of_primary_energy_mj_2011_usd_ppp_6_1_primary_energy_intensity <dbl>,
## #   renewable_electricity_output_g_wh_4_1_2_ren_electricity_output <int>,
## #   renewable_electricity_share_of_total_electricity_output_percent_4_1_share_re_in_electricity <dbl>,
…
dplyr is a super way to manipulate your data

Think of subsetting rows and columns as two separate different procedures:

select columns are operations on variables, and

filter rows are operations on observations

eyData %>% select(id, location)

## # A tibble: 1,010 x 2
##      id location
##   <int> <chr>   
## 1     1 AUS     
## 2     2 AUS     
## 3     3 AUS     
## 4     4 AUS     
## 5     5 AUS     
## # ... with 1,005 more rows

eyData %>% filter(location == "AUS")

## # A tibble: 46 x 41
##      id location  time gender population_perc edu_tertiary_pc cpi_agrwth
##   <int> <chr>    <int> <chr>             <dbl>            <dbl>      <dbl>
## 1     1 AUS       1993 MEN                49.8             23.5       1.75
## 2     2 AUS       1993 WOMEN              50.2             21.4       1.75
## 3     3 AUS       1994 MEN                49.8             24.4       1.97
## 4     4 AUS       1994 WOMEN              50.2             21.7       1.97
## 5     5 AUS       1995 MEN                49.8             25.8       4.63
## # ... with 41 more rows, and 34 more variables: gdp_usd_cap <dbl>,
## #   gov_spend_edu <dbl>, percent_sanitation_access <int>,
## #   access_to_clean_fuels_and_technologies_for_cooking_percent_of_total_population_2_1_access_cft_tot <chr>,
## #   access_to_electricity_percent_of_rural_population_with_access_1_2_access_electricity_rural <int>,
## #   access_to_electricity_percent_of_total_population_1_1_access_electricity_tot <int>,
## #   access_to_electricity_percent_of_urban_population_with_access_1_3_access_electricity_urban <int>,
## #   energy_intensity_level_of_primary_energy_mj_2011_usd_ppp_6_1_primary_energy_intensity <dbl>,
## #   renewable_electricity_output_g_wh_4_1_2_ren_electricity_output <int>,
## #   renewable_electricity_share_of_total_electricity_output_percent_4_1_share_re_in_electricity <dbl>,
…
So what??

Sure, you could stick with the base command.

But sometimes, you realise that you could do something more powerful! (Notice how this would require a for loop or saving intermediate variables to achieve in base).

eyData %>%
  filter(location == "AUS") %>%
  select(contains("population_ages"))

## # A tibble: 46 x 17
##   population_ages_0 population_ages_ population_ages_ population_ages_
##                <dbl>             <dbl>             <dbl>             <dbl>
## 1               7.48              7.53              7.38              7.67
## 2               7.05              7.10              6.95              7.26
## 3               7.48              7.45              7.40              7.43
## 4               7.04              7.03              6.97              7.01
## 5               7.44              7.39              7.40              7.27
## # ... with 41 more rows, and 13 more variables:
## #   population_ages_20_24_as_percent_of_specified_gender_population <dbl>,
## #   population_ages_25_29_as_percent_of_specified_gender_population <dbl>,
## #   population_ages_30_34_as_percent_of_specified_gender_population <dbl>,
## #   population_ages_35_39_as_percent_of_specified_gender_population <dbl>,
## #   population_ages_40_44_as_percent_of_specified_gender_population <dbl>,
## #   population_ages_45_49_as_percent_of_specified_gender_population <dbl>,
## #   population_ages_50_54_as_percent_of_specified_gender_population <dbl>,
## #   population_ages_55_59_as_percent_of_specified_gender_population <dbl>,
…
And what if you want to add in a second column that is a transformation of the first column?

eyData$gdp_aud_cap = eyData$gdp_usd_cap * 0.75
eyData$gdp_aud_cap_billions = eyData$gdp_aud_cap/1000

mutate allows you to do this in one function!

eyData %>% 
  mutate(
    gdp_aud_cap = gdp_usd_cap*0.75,
    gdp_aud_cap_billions = gdp_aud_cap/1000
  )

## # A tibble: 1,010 x 43
##      id location  time gender population_perc edu_tertiary_pc cpi_agrwth
##   <int> <chr>    <int> <chr>             <dbl>            <dbl>      <dbl>
## 1     1 AUS       1993 MEN                49.8             23.5       1.75
## 2     2 AUS       1993 WOMEN              50.2             21.4       1.75
## 3     3 AUS       1994 MEN                49.8             24.4       1.97
## 4     4 AUS       1994 WOMEN              50.2             21.7       1.97
## 5     5 AUS       1995 MEN                49.8             25.8       4.63
## # ... with 1,005 more rows, and 36 more variables: gdp_usd_cap <dbl>,
## #   gov_spend_edu <dbl>, percent_sanitation_access <int>,
## #   access_to_clean_fuels_and_technologies_for_cooking_percent_of_total_population_2_1_access_cft_tot <chr>,
## #   access_to_electricity_percent_of_rural_population_with_access_1_2_access_electricity_rural <int>,
## #   access_to_electricity_percent_of_total_population_1_1_access_electricity_tot <int>,
## #   access_to_electricity_percent_of_urban_population_with_access_1_3_access_electricity_urban <int>,
## #   energy_intensity_level_of_primary_energy_mj_2011_usd_ppp_6_1_primary_energy_intensity <dbl>,
## #   renewable_electricity_output_g_wh_4_1_2_ren_electricity_output <int>,
## #   renewable_electricity_share_of_total_electricity_output_percent_4_1_share_re_in_electricity <dbl>,
…
Summarise

Similar to tapply, but more flexible

eyData %>% 
  group_by(location) %>% 
  summarise(
    medianQol = median(quality_of_life_measure),
    meanQol = mean(quality_of_life_measure)
  )

## # A tibble: 30 x 3
##   location medianQol meanQol
##   <chr>        <dbl>   <dbl>
## 1 AUS          0.239   0.231
## 2 AUT          0.580   0.578
## 3 BEL          0.523   0.516
## 4 CAN          0.522   0.523
## 5 CHL          0.546   0.537
## # ... with 25 more rows

eyData %>% 
  group_by(location, time) %>% 
  summarise(medianQol = median(quality_of_life_measure))

## # A tibble: 505 x 3
## # Groups:   location [?]
##   location  time medianQol
##   <chr>    <int>     <dbl>
## 1 AUS       1993     0.205
## 2 AUS       1994     0.206
## 3 AUS       1995     0.206
## 4 AUS       1997     0.207
## 5 AUS       1998     0.206
## # ... with 500 more rows
…
tidyr

tidyr is a great companion with ggplot2

I know some of you used reshape2::melt. Which is a special case of tidyr::gather. The latter offers more control

popAges = eyData %>% 
  select(location, contains("population_ages"))

popAges

## # A tibble: 1,010 x 18
##   location population_ages_00_0 population_ages_05_ population_ages_10_
##   <chr>                    <dbl>                <dbl>                <dbl>
## 1 AUS                       7.48                 7.53                 7.38
## 2 AUS                       7.05                 7.10                 6.95
## 3 AUS                       7.48                 7.45                 7.40
## 4 AUS                       7.04                 7.03                 6.97
## 5 AUS                       7.44                 7.39                 7.40
## # ... with 1,005 more rows, and 14 more variables:
## #   population_ages_15_19_as_percent_of_specified_gender_population <dbl>,
## #   population_ages_20_24_as_percent_of_specified_gender_population <dbl>,
## #   population_ages_25_29_as_percent_of_specified_gender_population <dbl>,
## #   population_ages_30_34_as_percent_of_specified_gender_population <dbl>,
## #   population_ages_35_39_as_percent_of_specified_gender_population <dbl>,
## #   population_ages_40_44_as_percent_of_specified_gender_population <dbl>,
## #   population_ages_45_49_as_percent_of_specified_gender_population <dbl>,
## #   population_ages_50_54_as_percent_of_specified_gender_population <dbl>,
…
dataDictionary = readxl::read_excel("EY-data-science-challenge-pack/Data Dictionary.xlsx")

dataDictionary[1,]

## # A tibble: 1 x 3
##   NAME     TYPE      DESCRIPTION                                          
##   <chr>    <chr>     <chr>                                                
## 1 LOCATION Character AUS - Australia; AUT - Austria - Austria; BEL - Belg

tmp = dataDictionary[1,] %>% 
  tidyr::separate_rows(col = DESCRIPTION, sep = "; ")

tmp

## # A tibble: 35 x 3
##   NAME     TYPE      DESCRIPTION            
##   <chr>    <chr>     <chr>                  
## 1 LOCATION Character AUS - Australia        
## 2 LOCATION Character AUT - Austria - Austria
## 3 LOCATION Character BEL - Belgium          
## 4 LOCATION Character CAN - Canada           
## 5 LOCATION Character CHE - Switzerland      
## # ... with 30 more rows

countryNameData = tmp %>% 
  tidyr::separate(col = DESCRIPTION, into = c("threeLetters", "countryName"), sep = " - ") %>% 
  dplyr::select(threeLetters, countryName)

## Warning: Expected 2 pieces. Additional pieces discarded in 2 rows [2, 22].

countryNameData

## # A tibble: 35 x 2
##   threeLetters countryName
##   <chr>        <chr>      
## 1 AUS          Australia  
## 2 AUT          Austria    
## 3 BEL          Belgium    
## 4 CAN          Canada     
## 5 CHE          Switzerland
## # ... with 30 more rows

dplyr: Merging data

eyData_joined = dplyr::left_join(eyData, 
                                 countryNameData, 
                                 by = c("location" = "threeLetters"))
eyData_joined

## # A tibble: 1,010 x 42
##      id location  time gender population_perc edu_tertiary_pc cpi_agrwth
##   <int> <chr>    <int> <chr>             <dbl>            <dbl>      <dbl>
## 1     1 AUS       1993 MEN                49.8             23.5       1.75
## 2     2 AUS       1993 WOMEN              50.2             21.4       1.75
## 3     3 AUS       1994 MEN                49.8             24.4       1.97
## 4     4 AUS       1994 WOMEN              50.2             21.7       1.97
## 5     5 AUS       1995 MEN                49.8             25.8       4.63
## # ... with 1,005 more rows, and 35 more variables: gdp_usd_cap <dbl>,
## #   gov_spend_edu <dbl>, percent_sanitation_access <int>,
## #   access_to_clean_fuels_and_technologies_for_cooking_percent_of_total_population_2_1_access_cft_tot <chr>,
## #   access_to_electricity_percent_of_rural_population_with_access_1_2_access_electricity_rural <int>,
## #   access_to_electricity_percent_of_total_population_1_1_access_electricity_tot <int>,
## #   access_to_electricity_percent_of_urban_population_with_access_1_3_access_electricity_urban <int>,
## #   energy_intensity_level_of_primary_energy_mj_2011_usd_ppp_6_1_primary_energy_intensity <dbl>,
## #   renewable_electricity_output_g_wh_4_1_2_ren_electricity_output <int>,
## #   renewable_electricity_share_of_total_electricity_output_percent_4_1_share_re_in_electricity <dbl>,
…
